{
  "courses": [
    {
      "courseId": "1",
      "title": "С++",
      "isStarted": "false",
      "description": "Зачем?",
      "imageUrl": "http://82.146.53.185:8102/uploads/event-image/7PzP-6RZXqQeadD5z_aIp627Pq2P_bIN.jpg"
    },
    {
      "courseId": "2",
      "title": "С#",
      "isStarted": "false",
      "description": "Зачем?",
      "imageUrl": "http://dosug.md/UserFiles/dosugmd_news/max/Ob-em-venchurnyih-investitsiy-v-Rossii-.jpg"
    },
    {
      "courseId": "3",
      "title": "Java",
      "isStarted": "false",
      "description": "Зачем?",
      "imageUrl": "http://82.146.53.185:8102/uploads/qr-background-image/G-8xtX5OQ8QTkWMf8npxEcieCMVVvgZv.jpg"
    },
    {
      "courseId": "4",
      "title": "Yii",
      "progress": "100",
      "isStarted": "true",
      "description": "Зачем?",
      "imageUrl": "http://s.66.ru/localStorage/collection/d2/e0/eb/6d/d2e0eb6d_resizedScaled_659to439.jpg"
    }
  ]
}